INFO:     Will watch for changes in these directories: ['/home/gnss/gnss-model-api']
INFO:     Uvicorn running on http://0.0.0.0:8000 (Press CTRL+C to quit)
INFO:     Started reloader process [1005356] using StatReload
INFO:     Started server process [1005360]
INFO:     Waiting for application startup.
INFO:     Application startup complete.
INFO:     190.114.47.143:6714 - "GET /docs HTTP/1.1" 200 OK
INFO:     190.114.47.143:6714 - "GET /openapi.json HTTP/1.1" 200 OK
INFO:     34.32.129.133:38390 - "POST /new_machine HTTP/1.1" 500 Internal Server Error
ERROR:    Exception in ASGI application
Traceback (most recent call last):
  File "/home/gnss/.cache/pypoetry/virtualenvs/gnss-api-2aaN-qI1-py3.11/lib/python3.11/site-packages/sqlalchemy/engine/base.py", line 1969, in _exec_single_context
    self.dialect.do_execute(
  File "/home/gnss/.cache/pypoetry/virtualenvs/gnss-api-2aaN-qI1-py3.11/lib/python3.11/site-packages/sqlalchemy/engine/default.py", line 922, in do_execute
    cursor.execute(statement, parameters)
psycopg2.errors.NumericValueOutOfRange: integer out of range


The above exception was the direct cause of the following exception:

Traceback (most recent call last):
  File "/home/gnss/.cache/pypoetry/virtualenvs/gnss-api-2aaN-qI1-py3.11/lib/python3.11/site-packages/uvicorn/protocols/http/h11_impl.py", line 404, in run_asgi
    result = await app(  # type: ignore[func-returns-value]
             ^^^^^^^^^^^^^^^^^^^^^^^^^^^^^^^^^^^^^^^^^^^^^^
  File "/home/gnss/.cache/pypoetry/virtualenvs/gnss-api-2aaN-qI1-py3.11/lib/python3.11/site-packages/uvicorn/middleware/proxy_headers.py", line 84, in __call__
    return await self.app(scope, receive, send)
           ^^^^^^^^^^^^^^^^^^^^^^^^^^^^^^^^^^^^
  File "/home/gnss/.cache/pypoetry/virtualenvs/gnss-api-2aaN-qI1-py3.11/lib/python3.11/site-packages/fastapi/applications.py", line 1054, in __call__
    await super().__call__(scope, receive, send)
  File "/home/gnss/.cache/pypoetry/virtualenvs/gnss-api-2aaN-qI1-py3.11/lib/python3.11/site-packages/starlette/applications.py", line 123, in __call__
    await self.middleware_stack(scope, receive, send)
  File "/home/gnss/.cache/pypoetry/virtualenvs/gnss-api-2aaN-qI1-py3.11/lib/python3.11/site-packages/starlette/middleware/errors.py", line 186, in __call__
    raise exc
  File "/home/gnss/.cache/pypoetry/virtualenvs/gnss-api-2aaN-qI1-py3.11/lib/python3.11/site-packages/starlette/middleware/errors.py", line 164, in __call__
    await self.app(scope, receive, _send)
  File "/home/gnss/.cache/pypoetry/virtualenvs/gnss-api-2aaN-qI1-py3.11/lib/python3.11/site-packages/starlette/middleware/exceptions.py", line 62, in __call__
    await wrap_app_handling_exceptions(self.app, conn)(scope, receive, send)
  File "/home/gnss/.cache/pypoetry/virtualenvs/gnss-api-2aaN-qI1-py3.11/lib/python3.11/site-packages/starlette/_exception_handler.py", line 64, in wrapped_app
    raise exc
  File "/home/gnss/.cache/pypoetry/virtualenvs/gnss-api-2aaN-qI1-py3.11/lib/python3.11/site-packages/starlette/_exception_handler.py", line 53, in wrapped_app
    await app(scope, receive, sender)
  File "/home/gnss/.cache/pypoetry/virtualenvs/gnss-api-2aaN-qI1-py3.11/lib/python3.11/site-packages/starlette/routing.py", line 762, in __call__
    await self.middleware_stack(scope, receive, send)
  File "/home/gnss/.cache/pypoetry/virtualenvs/gnss-api-2aaN-qI1-py3.11/lib/python3.11/site-packages/starlette/routing.py", line 782, in app
    await route.handle(scope, receive, send)
  File "/home/gnss/.cache/pypoetry/virtualenvs/gnss-api-2aaN-qI1-py3.11/lib/python3.11/site-packages/starlette/routing.py", line 297, in handle
    await self.app(scope, receive, send)
  File "/home/gnss/.cache/pypoetry/virtualenvs/gnss-api-2aaN-qI1-py3.11/lib/python3.11/site-packages/starlette/routing.py", line 77, in app
    await wrap_app_handling_exceptions(app, request)(scope, receive, send)
  File "/home/gnss/.cache/pypoetry/virtualenvs/gnss-api-2aaN-qI1-py3.11/lib/python3.11/site-packages/starlette/_exception_handler.py", line 64, in wrapped_app
    raise exc
  File "/home/gnss/.cache/pypoetry/virtualenvs/gnss-api-2aaN-qI1-py3.11/lib/python3.11/site-packages/starlette/_exception_handler.py", line 53, in wrapped_app
    await app(scope, receive, sender)
  File "/home/gnss/.cache/pypoetry/virtualenvs/gnss-api-2aaN-qI1-py3.11/lib/python3.11/site-packages/starlette/routing.py", line 72, in app
    response = await func(request)
               ^^^^^^^^^^^^^^^^^^^
  File "/home/gnss/.cache/pypoetry/virtualenvs/gnss-api-2aaN-qI1-py3.11/lib/python3.11/site-packages/fastapi/routing.py", line 299, in app
    raise e
  File "/home/gnss/.cache/pypoetry/virtualenvs/gnss-api-2aaN-qI1-py3.11/lib/python3.11/site-packages/fastapi/routing.py", line 294, in app
    raw_response = await run_endpoint_function(
                   ^^^^^^^^^^^^^^^^^^^^^^^^^^^^
  File "/home/gnss/.cache/pypoetry/virtualenvs/gnss-api-2aaN-qI1-py3.11/lib/python3.11/site-packages/fastapi/routing.py", line 191, in run_endpoint_function
    return await dependant.call(**values)
           ^^^^^^^^^^^^^^^^^^^^^^^^^^^^^^
  File "/home/gnss/gnss-model-api/gnss_api/db/api.py", line 91, in create_new_machine
    result = manager.new_machine(**params)
             ^^^^^^^^^^^^^^^^^^^^^^^^^^^^^
  File "/home/gnss/gnss-model-api/gnss_api/db/manager.py", line 31, in new_machine
    session.commit()
  File "/home/gnss/.cache/pypoetry/virtualenvs/gnss-api-2aaN-qI1-py3.11/lib/python3.11/site-packages/sqlalchemy/orm/session.py", line 1969, in commit
    trans.commit(_to_root=True)
  File "<string>", line 2, in commit
  File "/home/gnss/.cache/pypoetry/virtualenvs/gnss-api-2aaN-qI1-py3.11/lib/python3.11/site-packages/sqlalchemy/orm/state_changes.py", line 139, in _go
    ret_value = fn(self, *arg, **kw)
                ^^^^^^^^^^^^^^^^^^^^
  File "/home/gnss/.cache/pypoetry/virtualenvs/gnss-api-2aaN-qI1-py3.11/lib/python3.11/site-packages/sqlalchemy/orm/session.py", line 1256, in commit
    self._prepare_impl()
  File "<string>", line 2, in _prepare_impl
  File "/home/gnss/.cache/pypoetry/virtualenvs/gnss-api-2aaN-qI1-py3.11/lib/python3.11/site-packages/sqlalchemy/orm/state_changes.py", line 139, in _go
    ret_value = fn(self, *arg, **kw)
                ^^^^^^^^^^^^^^^^^^^^
  File "/home/gnss/.cache/pypoetry/virtualenvs/gnss-api-2aaN-qI1-py3.11/lib/python3.11/site-packages/sqlalchemy/orm/session.py", line 1231, in _prepare_impl
    self.session.flush()
  File "/home/gnss/.cache/pypoetry/virtualenvs/gnss-api-2aaN-qI1-py3.11/lib/python3.11/site-packages/sqlalchemy/orm/session.py", line 4312, in flush
    self._flush(objects)
  File "/home/gnss/.cache/pypoetry/virtualenvs/gnss-api-2aaN-qI1-py3.11/lib/python3.11/site-packages/sqlalchemy/orm/session.py", line 4447, in _flush
    with util.safe_reraise():
  File "/home/gnss/.cache/pypoetry/virtualenvs/gnss-api-2aaN-qI1-py3.11/lib/python3.11/site-packages/sqlalchemy/util/langhelpers.py", line 146, in __exit__
    raise exc_value.with_traceback(exc_tb)
  File "/home/gnss/.cache/pypoetry/virtualenvs/gnss-api-2aaN-qI1-py3.11/lib/python3.11/site-packages/sqlalchemy/orm/session.py", line 4408, in _flush
    flush_context.execute()
  File "/home/gnss/.cache/pypoetry/virtualenvs/gnss-api-2aaN-qI1-py3.11/lib/python3.11/site-packages/sqlalchemy/orm/unitofwork.py", line 466, in execute
    rec.execute(self)
  File "/home/gnss/.cache/pypoetry/virtualenvs/gnss-api-2aaN-qI1-py3.11/lib/python3.11/site-packages/sqlalchemy/orm/unitofwork.py", line 642, in execute
    util.preloaded.orm_persistence.save_obj(
  File "/home/gnss/.cache/pypoetry/virtualenvs/gnss-api-2aaN-qI1-py3.11/lib/python3.11/site-packages/sqlalchemy/orm/persistence.py", line 93, in save_obj
    _emit_insert_statements(
  File "/home/gnss/.cache/pypoetry/virtualenvs/gnss-api-2aaN-qI1-py3.11/lib/python3.11/site-packages/sqlalchemy/orm/persistence.py", line 1227, in _emit_insert_statements
    result = connection.execute(
             ^^^^^^^^^^^^^^^^^^^
  File "/home/gnss/.cache/pypoetry/virtualenvs/gnss-api-2aaN-qI1-py3.11/lib/python3.11/site-packages/sqlalchemy/engine/base.py", line 1416, in execute
    return meth(
           ^^^^^
  File "/home/gnss/.cache/pypoetry/virtualenvs/gnss-api-2aaN-qI1-py3.11/lib/python3.11/site-packages/sqlalchemy/sql/elements.py", line 517, in _execute_on_connection
    return connection._execute_clauseelement(
           ^^^^^^^^^^^^^^^^^^^^^^^^^^^^^^^^^^
  File "/home/gnss/.cache/pypoetry/virtualenvs/gnss-api-2aaN-qI1-py3.11/lib/python3.11/site-packages/sqlalchemy/engine/base.py", line 1639, in _execute_clauseelement
    ret = self._execute_context(
          ^^^^^^^^^^^^^^^^^^^^^^
  File "/home/gnss/.cache/pypoetry/virtualenvs/gnss-api-2aaN-qI1-py3.11/lib/python3.11/site-packages/sqlalchemy/engine/base.py", line 1848, in _execute_context
    return self._exec_single_context(
           ^^^^^^^^^^^^^^^^^^^^^^^^^^
  File "/home/gnss/.cache/pypoetry/virtualenvs/gnss-api-2aaN-qI1-py3.11/lib/python3.11/site-packages/sqlalchemy/engine/base.py", line 1988, in _exec_single_context
    self._handle_dbapi_exception(
  File "/home/gnss/.cache/pypoetry/virtualenvs/gnss-api-2aaN-qI1-py3.11/lib/python3.11/site-packages/sqlalchemy/engine/base.py", line 2344, in _handle_dbapi_exception
    raise sqlalchemy_exception.with_traceback(exc_info[2]) from e
  File "/home/gnss/.cache/pypoetry/virtualenvs/gnss-api-2aaN-qI1-py3.11/lib/python3.11/site-packages/sqlalchemy/engine/base.py", line 1969, in _exec_single_context
    self.dialect.do_execute(
  File "/home/gnss/.cache/pypoetry/virtualenvs/gnss-api-2aaN-qI1-py3.11/lib/python3.11/site-packages/sqlalchemy/engine/default.py", line 922, in do_execute
    cursor.execute(statement, parameters)
sqlalchemy.exc.DataError: (psycopg2.errors.NumericValueOutOfRange) integer out of range

[SQL: INSERT INTO machine (name, description, timestamp, edited, hyperparameters, optimizer, criterion, epochs, log_path, dataset_path, dataset_size, ml_path) VALUES (%(name)s, %(description)s, %(timestamp)s, %(edited)s, %(hyperparameters)s, %(optimizer)s, %(criterion)s, %(epochs)s, %(log_path)s, %(dataset_path)s, %(dataset_size)s, %(ml_path)s) RETURNING machine.id]
[parameters: {'name': 'cnn_lineal_baseline_minitest', 'description': 'This train model is created to check the\n        trainning workflow', 'timestamp': datetime.datetime(2024, 1, 31, 0, 48, 18, 895127), 'edited': datetime.datetime(2024, 1, 31, 0, 48, 18, 895135), 'hyperparameters': '{"e": {"order": ["conv1", "pool", "conv2", "conv3", "relu", "fc1", "fc2"], "conv1": [1, 8], "conv2": [48, 164], "fc1": [26404, 7200], "fc2": [7200, 3 ... (291 characters truncated) ... , "fc2": [7200, 320]}, "learning_rate": 0.001, "selection": {"0": [0], "1": [1], "2": [2]}, "momentum": 0.9, "batch_size": {"train": 64, "test": 64}}', 'optimizer': 'OptimizerManager|Adam', 'criterion': 'CriterionManager|MSELoss', 'epochs': 1, 'log_path': '/content/drive/MyDrive/gnssml/logs/cnn_lineal_baseline_minitest_2024_01_31_00_48_02.log', 'dataset_path': '/content/drive/MyDrive/datasets_test', 'dataset_size': 3508347969, 'ml_path': '/content/drive/MyDrive/models/cnn_lineal_baseline_minitest'}]
(Background on this error at: https://sqlalche.me/e/20/9h9h)
INFO:     34.32.129.133:34700 - "GET / HTTP/1.1" 404 Not Found
INFO:     190.114.47.143:6298 - "GET /docs HTTP/1.1" 200 OK
INFO:     190.114.47.143:6298 - "GET /openapi.json HTTP/1.1" 200 OK
INFO:     34.32.129.133:43240 - "GET /ping HTTP/1.1" 500 Internal Server Error
ERROR:    Exception in ASGI application
Traceback (most recent call last):
  File "/home/gnss/.cache/pypoetry/virtualenvs/gnss-api-2aaN-qI1-py3.11/lib/python3.11/site-packages/uvicorn/protocols/http/h11_impl.py", line 404, in run_asgi
    result = await app(  # type: ignore[func-returns-value]
             ^^^^^^^^^^^^^^^^^^^^^^^^^^^^^^^^^^^^^^^^^^^^^^
  File "/home/gnss/.cache/pypoetry/virtualenvs/gnss-api-2aaN-qI1-py3.11/lib/python3.11/site-packages/uvicorn/middleware/proxy_headers.py", line 84, in __call__
    return await self.app(scope, receive, send)
           ^^^^^^^^^^^^^^^^^^^^^^^^^^^^^^^^^^^^
  File "/home/gnss/.cache/pypoetry/virtualenvs/gnss-api-2aaN-qI1-py3.11/lib/python3.11/site-packages/fastapi/applications.py", line 1054, in __call__
    await super().__call__(scope, receive, send)
  File "/home/gnss/.cache/pypoetry/virtualenvs/gnss-api-2aaN-qI1-py3.11/lib/python3.11/site-packages/starlette/applications.py", line 123, in __call__
    await self.middleware_stack(scope, receive, send)
  File "/home/gnss/.cache/pypoetry/virtualenvs/gnss-api-2aaN-qI1-py3.11/lib/python3.11/site-packages/starlette/middleware/errors.py", line 186, in __call__
    raise exc
  File "/home/gnss/.cache/pypoetry/virtualenvs/gnss-api-2aaN-qI1-py3.11/lib/python3.11/site-packages/starlette/middleware/errors.py", line 164, in __call__
    await self.app(scope, receive, _send)
  File "/home/gnss/.cache/pypoetry/virtualenvs/gnss-api-2aaN-qI1-py3.11/lib/python3.11/site-packages/starlette/middleware/exceptions.py", line 62, in __call__
    await wrap_app_handling_exceptions(self.app, conn)(scope, receive, send)
  File "/home/gnss/.cache/pypoetry/virtualenvs/gnss-api-2aaN-qI1-py3.11/lib/python3.11/site-packages/starlette/_exception_handler.py", line 64, in wrapped_app
    raise exc
  File "/home/gnss/.cache/pypoetry/virtualenvs/gnss-api-2aaN-qI1-py3.11/lib/python3.11/site-packages/starlette/_exception_handler.py", line 53, in wrapped_app
    await app(scope, receive, sender)
  File "/home/gnss/.cache/pypoetry/virtualenvs/gnss-api-2aaN-qI1-py3.11/lib/python3.11/site-packages/starlette/routing.py", line 762, in __call__
    await self.middleware_stack(scope, receive, send)
  File "/home/gnss/.cache/pypoetry/virtualenvs/gnss-api-2aaN-qI1-py3.11/lib/python3.11/site-packages/starlette/routing.py", line 782, in app
    await route.handle(scope, receive, send)
  File "/home/gnss/.cache/pypoetry/virtualenvs/gnss-api-2aaN-qI1-py3.11/lib/python3.11/site-packages/starlette/routing.py", line 297, in handle
    await self.app(scope, receive, send)
  File "/home/gnss/.cache/pypoetry/virtualenvs/gnss-api-2aaN-qI1-py3.11/lib/python3.11/site-packages/starlette/routing.py", line 77, in app
    await wrap_app_handling_exceptions(app, request)(scope, receive, send)
  File "/home/gnss/.cache/pypoetry/virtualenvs/gnss-api-2aaN-qI1-py3.11/lib/python3.11/site-packages/starlette/_exception_handler.py", line 64, in wrapped_app
    raise exc
  File "/home/gnss/.cache/pypoetry/virtualenvs/gnss-api-2aaN-qI1-py3.11/lib/python3.11/site-packages/starlette/_exception_handler.py", line 53, in wrapped_app
    await app(scope, receive, sender)
  File "/home/gnss/.cache/pypoetry/virtualenvs/gnss-api-2aaN-qI1-py3.11/lib/python3.11/site-packages/starlette/routing.py", line 72, in app
    response = await func(request)
               ^^^^^^^^^^^^^^^^^^^
  File "/home/gnss/.cache/pypoetry/virtualenvs/gnss-api-2aaN-qI1-py3.11/lib/python3.11/site-packages/fastapi/routing.py", line 326, in app
    response = actual_response_class(content, **response_args)
               ^^^^^^^^^^^^^^^^^^^^^^^^^^^^^^^^^^^^^^^^^^^^^^^
  File "/home/gnss/.cache/pypoetry/virtualenvs/gnss-api-2aaN-qI1-py3.11/lib/python3.11/site-packages/starlette/responses.py", line 180, in __init__
    super().__init__(content, status_code, headers, media_type, background)
  File "/home/gnss/.cache/pypoetry/virtualenvs/gnss-api-2aaN-qI1-py3.11/lib/python3.11/site-packages/starlette/responses.py", line 39, in __init__
    self.body = self.render(content)
                ^^^^^^^^^^^^^^^^^^^^
  File "/home/gnss/.cache/pypoetry/virtualenvs/gnss-api-2aaN-qI1-py3.11/lib/python3.11/site-packages/fastapi/responses.py", line 45, in render
    assert orjson is not None, "orjson must be installed to use ORJSONResponse"
           ^^^^^^^^^^^^^^^^^^
AssertionError: orjson must be installed to use ORJSONResponse
INFO:     34.32.129.133:46278 - "GET /ping HTTP/1.1" 500 Internal Server Error
ERROR:    Exception in ASGI application
Traceback (most recent call last):
  File "/home/gnss/.cache/pypoetry/virtualenvs/gnss-api-2aaN-qI1-py3.11/lib/python3.11/site-packages/uvicorn/protocols/http/h11_impl.py", line 404, in run_asgi
    result = await app(  # type: ignore[func-returns-value]
             ^^^^^^^^^^^^^^^^^^^^^^^^^^^^^^^^^^^^^^^^^^^^^^
  File "/home/gnss/.cache/pypoetry/virtualenvs/gnss-api-2aaN-qI1-py3.11/lib/python3.11/site-packages/uvicorn/middleware/proxy_headers.py", line 84, in __call__
    return await self.app(scope, receive, send)
           ^^^^^^^^^^^^^^^^^^^^^^^^^^^^^^^^^^^^
  File "/home/gnss/.cache/pypoetry/virtualenvs/gnss-api-2aaN-qI1-py3.11/lib/python3.11/site-packages/fastapi/applications.py", line 1054, in __call__
    await super().__call__(scope, receive, send)
  File "/home/gnss/.cache/pypoetry/virtualenvs/gnss-api-2aaN-qI1-py3.11/lib/python3.11/site-packages/starlette/applications.py", line 123, in __call__
    await self.middleware_stack(scope, receive, send)
  File "/home/gnss/.cache/pypoetry/virtualenvs/gnss-api-2aaN-qI1-py3.11/lib/python3.11/site-packages/starlette/middleware/errors.py", line 186, in __call__
    raise exc
  File "/home/gnss/.cache/pypoetry/virtualenvs/gnss-api-2aaN-qI1-py3.11/lib/python3.11/site-packages/starlette/middleware/errors.py", line 164, in __call__
    await self.app(scope, receive, _send)
  File "/home/gnss/.cache/pypoetry/virtualenvs/gnss-api-2aaN-qI1-py3.11/lib/python3.11/site-packages/starlette/middleware/exceptions.py", line 62, in __call__
    await wrap_app_handling_exceptions(self.app, conn)(scope, receive, send)
  File "/home/gnss/.cache/pypoetry/virtualenvs/gnss-api-2aaN-qI1-py3.11/lib/python3.11/site-packages/starlette/_exception_handler.py", line 64, in wrapped_app
    raise exc
  File "/home/gnss/.cache/pypoetry/virtualenvs/gnss-api-2aaN-qI1-py3.11/lib/python3.11/site-packages/starlette/_exception_handler.py", line 53, in wrapped_app
    await app(scope, receive, sender)
  File "/home/gnss/.cache/pypoetry/virtualenvs/gnss-api-2aaN-qI1-py3.11/lib/python3.11/site-packages/starlette/routing.py", line 762, in __call__
    await self.middleware_stack(scope, receive, send)
  File "/home/gnss/.cache/pypoetry/virtualenvs/gnss-api-2aaN-qI1-py3.11/lib/python3.11/site-packages/starlette/routing.py", line 782, in app
    await route.handle(scope, receive, send)
  File "/home/gnss/.cache/pypoetry/virtualenvs/gnss-api-2aaN-qI1-py3.11/lib/python3.11/site-packages/starlette/routing.py", line 297, in handle
    await self.app(scope, receive, send)
  File "/home/gnss/.cache/pypoetry/virtualenvs/gnss-api-2aaN-qI1-py3.11/lib/python3.11/site-packages/starlette/routing.py", line 77, in app
    await wrap_app_handling_exceptions(app, request)(scope, receive, send)
  File "/home/gnss/.cache/pypoetry/virtualenvs/gnss-api-2aaN-qI1-py3.11/lib/python3.11/site-packages/starlette/_exception_handler.py", line 64, in wrapped_app
    raise exc
  File "/home/gnss/.cache/pypoetry/virtualenvs/gnss-api-2aaN-qI1-py3.11/lib/python3.11/site-packages/starlette/_exception_handler.py", line 53, in wrapped_app
    await app(scope, receive, sender)
  File "/home/gnss/.cache/pypoetry/virtualenvs/gnss-api-2aaN-qI1-py3.11/lib/python3.11/site-packages/starlette/routing.py", line 72, in app
    response = await func(request)
               ^^^^^^^^^^^^^^^^^^^
  File "/home/gnss/.cache/pypoetry/virtualenvs/gnss-api-2aaN-qI1-py3.11/lib/python3.11/site-packages/fastapi/routing.py", line 326, in app
    response = actual_response_class(content, **response_args)
               ^^^^^^^^^^^^^^^^^^^^^^^^^^^^^^^^^^^^^^^^^^^^^^^
  File "/home/gnss/.cache/pypoetry/virtualenvs/gnss-api-2aaN-qI1-py3.11/lib/python3.11/site-packages/starlette/responses.py", line 180, in __init__
    super().__init__(content, status_code, headers, media_type, background)
  File "/home/gnss/.cache/pypoetry/virtualenvs/gnss-api-2aaN-qI1-py3.11/lib/python3.11/site-packages/starlette/responses.py", line 39, in __init__
    self.body = self.render(content)
                ^^^^^^^^^^^^^^^^^^^^
  File "/home/gnss/.cache/pypoetry/virtualenvs/gnss-api-2aaN-qI1-py3.11/lib/python3.11/site-packages/fastapi/responses.py", line 45, in render
    assert orjson is not None, "orjson must be installed to use ORJSONResponse"
           ^^^^^^^^^^^^^^^^^^
AssertionError: orjson must be installed to use ORJSONResponse
INFO:     190.114.47.143:6432 - "GET /ping HTTP/1.1" 500 Internal Server Error
ERROR:    Exception in ASGI application
Traceback (most recent call last):
  File "/home/gnss/.cache/pypoetry/virtualenvs/gnss-api-2aaN-qI1-py3.11/lib/python3.11/site-packages/uvicorn/protocols/http/h11_impl.py", line 404, in run_asgi
    result = await app(  # type: ignore[func-returns-value]
             ^^^^^^^^^^^^^^^^^^^^^^^^^^^^^^^^^^^^^^^^^^^^^^
  File "/home/gnss/.cache/pypoetry/virtualenvs/gnss-api-2aaN-qI1-py3.11/lib/python3.11/site-packages/uvicorn/middleware/proxy_headers.py", line 84, in __call__
    return await self.app(scope, receive, send)
           ^^^^^^^^^^^^^^^^^^^^^^^^^^^^^^^^^^^^
  File "/home/gnss/.cache/pypoetry/virtualenvs/gnss-api-2aaN-qI1-py3.11/lib/python3.11/site-packages/fastapi/applications.py", line 1054, in __call__
    await super().__call__(scope, receive, send)
  File "/home/gnss/.cache/pypoetry/virtualenvs/gnss-api-2aaN-qI1-py3.11/lib/python3.11/site-packages/starlette/applications.py", line 123, in __call__
    await self.middleware_stack(scope, receive, send)
  File "/home/gnss/.cache/pypoetry/virtualenvs/gnss-api-2aaN-qI1-py3.11/lib/python3.11/site-packages/starlette/middleware/errors.py", line 186, in __call__
    raise exc
  File "/home/gnss/.cache/pypoetry/virtualenvs/gnss-api-2aaN-qI1-py3.11/lib/python3.11/site-packages/starlette/middleware/errors.py", line 164, in __call__
    await self.app(scope, receive, _send)
  File "/home/gnss/.cache/pypoetry/virtualenvs/gnss-api-2aaN-qI1-py3.11/lib/python3.11/site-packages/starlette/middleware/exceptions.py", line 62, in __call__
    await wrap_app_handling_exceptions(self.app, conn)(scope, receive, send)
  File "/home/gnss/.cache/pypoetry/virtualenvs/gnss-api-2aaN-qI1-py3.11/lib/python3.11/site-packages/starlette/_exception_handler.py", line 64, in wrapped_app
    raise exc
  File "/home/gnss/.cache/pypoetry/virtualenvs/gnss-api-2aaN-qI1-py3.11/lib/python3.11/site-packages/starlette/_exception_handler.py", line 53, in wrapped_app
    await app(scope, receive, sender)
  File "/home/gnss/.cache/pypoetry/virtualenvs/gnss-api-2aaN-qI1-py3.11/lib/python3.11/site-packages/starlette/routing.py", line 762, in __call__
    await self.middleware_stack(scope, receive, send)
  File "/home/gnss/.cache/pypoetry/virtualenvs/gnss-api-2aaN-qI1-py3.11/lib/python3.11/site-packages/starlette/routing.py", line 782, in app
    await route.handle(scope, receive, send)
  File "/home/gnss/.cache/pypoetry/virtualenvs/gnss-api-2aaN-qI1-py3.11/lib/python3.11/site-packages/starlette/routing.py", line 297, in handle
    await self.app(scope, receive, send)
  File "/home/gnss/.cache/pypoetry/virtualenvs/gnss-api-2aaN-qI1-py3.11/lib/python3.11/site-packages/starlette/routing.py", line 77, in app
    await wrap_app_handling_exceptions(app, request)(scope, receive, send)
  File "/home/gnss/.cache/pypoetry/virtualenvs/gnss-api-2aaN-qI1-py3.11/lib/python3.11/site-packages/starlette/_exception_handler.py", line 64, in wrapped_app
    raise exc
  File "/home/gnss/.cache/pypoetry/virtualenvs/gnss-api-2aaN-qI1-py3.11/lib/python3.11/site-packages/starlette/_exception_handler.py", line 53, in wrapped_app
    await app(scope, receive, sender)
  File "/home/gnss/.cache/pypoetry/virtualenvs/gnss-api-2aaN-qI1-py3.11/lib/python3.11/site-packages/starlette/routing.py", line 72, in app
    response = await func(request)
               ^^^^^^^^^^^^^^^^^^^
  File "/home/gnss/.cache/pypoetry/virtualenvs/gnss-api-2aaN-qI1-py3.11/lib/python3.11/site-packages/fastapi/routing.py", line 326, in app
    response = actual_response_class(content, **response_args)
               ^^^^^^^^^^^^^^^^^^^^^^^^^^^^^^^^^^^^^^^^^^^^^^^
  File "/home/gnss/.cache/pypoetry/virtualenvs/gnss-api-2aaN-qI1-py3.11/lib/python3.11/site-packages/starlette/responses.py", line 180, in __init__
    super().__init__(content, status_code, headers, media_type, background)
  File "/home/gnss/.cache/pypoetry/virtualenvs/gnss-api-2aaN-qI1-py3.11/lib/python3.11/site-packages/starlette/responses.py", line 39, in __init__
    self.body = self.render(content)
                ^^^^^^^^^^^^^^^^^^^^
  File "/home/gnss/.cache/pypoetry/virtualenvs/gnss-api-2aaN-qI1-py3.11/lib/python3.11/site-packages/fastapi/responses.py", line 45, in render
    assert orjson is not None, "orjson must be installed to use ORJSONResponse"
           ^^^^^^^^^^^^^^^^^^
AssertionError: orjson must be installed to use ORJSONResponse
INFO:     190.114.47.143:6528 - "GET /favicon.ico HTTP/1.1" 404 Not Found
INFO:     190.114.47.143:6116 - "GET /machine HTTP/1.1" 422 Unprocessable Entity
INFO:     190.114.47.143:6652 - "GET /machines HTTP/1.1" 500 Internal Server Error
ERROR:    Exception in ASGI application
Traceback (most recent call last):
  File "/home/gnss/.cache/pypoetry/virtualenvs/gnss-api-2aaN-qI1-py3.11/lib/python3.11/site-packages/uvicorn/protocols/http/h11_impl.py", line 404, in run_asgi
    result = await app(  # type: ignore[func-returns-value]
             ^^^^^^^^^^^^^^^^^^^^^^^^^^^^^^^^^^^^^^^^^^^^^^
  File "/home/gnss/.cache/pypoetry/virtualenvs/gnss-api-2aaN-qI1-py3.11/lib/python3.11/site-packages/uvicorn/middleware/proxy_headers.py", line 84, in __call__
    return await self.app(scope, receive, send)
           ^^^^^^^^^^^^^^^^^^^^^^^^^^^^^^^^^^^^
  File "/home/gnss/.cache/pypoetry/virtualenvs/gnss-api-2aaN-qI1-py3.11/lib/python3.11/site-packages/fastapi/applications.py", line 1054, in __call__
    await super().__call__(scope, receive, send)
  File "/home/gnss/.cache/pypoetry/virtualenvs/gnss-api-2aaN-qI1-py3.11/lib/python3.11/site-packages/starlette/applications.py", line 123, in __call__
    await self.middleware_stack(scope, receive, send)
  File "/home/gnss/.cache/pypoetry/virtualenvs/gnss-api-2aaN-qI1-py3.11/lib/python3.11/site-packages/starlette/middleware/errors.py", line 186, in __call__
    raise exc
  File "/home/gnss/.cache/pypoetry/virtualenvs/gnss-api-2aaN-qI1-py3.11/lib/python3.11/site-packages/starlette/middleware/errors.py", line 164, in __call__
    await self.app(scope, receive, _send)
  File "/home/gnss/.cache/pypoetry/virtualenvs/gnss-api-2aaN-qI1-py3.11/lib/python3.11/site-packages/starlette/middleware/exceptions.py", line 62, in __call__
    await wrap_app_handling_exceptions(self.app, conn)(scope, receive, send)
  File "/home/gnss/.cache/pypoetry/virtualenvs/gnss-api-2aaN-qI1-py3.11/lib/python3.11/site-packages/starlette/_exception_handler.py", line 64, in wrapped_app
    raise exc
  File "/home/gnss/.cache/pypoetry/virtualenvs/gnss-api-2aaN-qI1-py3.11/lib/python3.11/site-packages/starlette/_exception_handler.py", line 53, in wrapped_app
    await app(scope, receive, sender)
  File "/home/gnss/.cache/pypoetry/virtualenvs/gnss-api-2aaN-qI1-py3.11/lib/python3.11/site-packages/starlette/routing.py", line 762, in __call__
    await self.middleware_stack(scope, receive, send)
  File "/home/gnss/.cache/pypoetry/virtualenvs/gnss-api-2aaN-qI1-py3.11/lib/python3.11/site-packages/starlette/routing.py", line 782, in app
    await route.handle(scope, receive, send)
  File "/home/gnss/.cache/pypoetry/virtualenvs/gnss-api-2aaN-qI1-py3.11/lib/python3.11/site-packages/starlette/routing.py", line 297, in handle
    await self.app(scope, receive, send)
  File "/home/gnss/.cache/pypoetry/virtualenvs/gnss-api-2aaN-qI1-py3.11/lib/python3.11/site-packages/starlette/routing.py", line 77, in app
    await wrap_app_handling_exceptions(app, request)(scope, receive, send)
  File "/home/gnss/.cache/pypoetry/virtualenvs/gnss-api-2aaN-qI1-py3.11/lib/python3.11/site-packages/starlette/_exception_handler.py", line 64, in wrapped_app
    raise exc
  File "/home/gnss/.cache/pypoetry/virtualenvs/gnss-api-2aaN-qI1-py3.11/lib/python3.11/site-packages/starlette/_exception_handler.py", line 53, in wrapped_app
    await app(scope, receive, sender)
  File "/home/gnss/.cache/pypoetry/virtualenvs/gnss-api-2aaN-qI1-py3.11/lib/python3.11/site-packages/starlette/routing.py", line 72, in app
    response = await func(request)
               ^^^^^^^^^^^^^^^^^^^
  File "/home/gnss/.cache/pypoetry/virtualenvs/gnss-api-2aaN-qI1-py3.11/lib/python3.11/site-packages/fastapi/routing.py", line 326, in app
    response = actual_response_class(content, **response_args)
               ^^^^^^^^^^^^^^^^^^^^^^^^^^^^^^^^^^^^^^^^^^^^^^^
  File "/home/gnss/.cache/pypoetry/virtualenvs/gnss-api-2aaN-qI1-py3.11/lib/python3.11/site-packages/starlette/responses.py", line 180, in __init__
    super().__init__(content, status_code, headers, media_type, background)
  File "/home/gnss/.cache/pypoetry/virtualenvs/gnss-api-2aaN-qI1-py3.11/lib/python3.11/site-packages/starlette/responses.py", line 39, in __init__
    self.body = self.render(content)
                ^^^^^^^^^^^^^^^^^^^^
  File "/home/gnss/.cache/pypoetry/virtualenvs/gnss-api-2aaN-qI1-py3.11/lib/python3.11/site-packages/fastapi/responses.py", line 45, in render
    assert orjson is not None, "orjson must be installed to use ORJSONResponse"
           ^^^^^^^^^^^^^^^^^^
AssertionError: orjson must be installed to use ORJSONResponse
./run_server.sh: line 2: 1005356 Killed                  poetry run uvicorn gnss_api.db.api:app --host 0.0.0.0 --port 8000 --reload
